"0","FilterStat <- read.table('/Xbiome1/tongbangzhuo/Project/GenewizMetaEvaluation/Stat.xls', header = TRUE, sep = '\t', check.names = FALSE, row.names = 1)"
"0","RemoveHost <- read.table('/Xbiome1/tongbangzhuo/Project/GenewizMetaEvaluation/rmHostStat.xls', header = TRUE, sep = '\t', check.names = FALSE, row.names = 2)%>% .[,-1]"
"0","rownames(RemoveHost) %<>% str_remove('_1_kneaddata')"
"0","combined_stat <- cbind(FilterStat,RemoveHost) %>% select(RawReads, CleanReads, `final pair1`, `final pair2`) %>% mutate(RemovedHost = `final pair1`+`final pair2`) %>% select(RawReads,CleanReads,RemovedHost)"
"0","combined_stat_Genewiz <- combined_stat[meta %>% filter(Vendor == '金唯智') %>% .$seq_id %>% as.character(),] %>% rownames_to_column('ID')"
"0","reshaped_combined_stat <- combined_stat_Genewiz %>% reshape2::melt()"
"0","ggplot(data=reshaped_combined_stat, aes(x=variable, y=value, col = ID ,group =ID)) +"
"0","  geom_line(aes(col = ID), linetype=""dashed"", size=0.4) +"
"0","  geom_point() + ggtitle(""Plot of Reads number at each filtering stage"") +"
"0","  xlab(""Filtering Process"") + ylab(""Reads number"")"
