"0","Donordata <- read_xlsx('/Xbiome1/tongbangzhuo/Project/NewTech/Donor_selection/GD00909001/Species_Abundance.xlsx', sheet = 1) %>% as.data.frame()"
"1",""
"1","-"
"1",""
"1","/"
"1","                                                                                                                                                                                                                                "
"1",""
"0","colnames(Donordata)[1] <- 'seqid'"
"0","colnames(Donordata) %<>% str_remove('Species__')"
"0","Donordata %<>% filter(ProductionID == ""M15""  | ProductionID == ""M16"" | ProductionID == ""M17"" | ProductionID == ""F18"" | ProductionID == ""M19"") %>% select(!c(CollectionDate, ProductionID)) %>% column_to_rownames('seqid')"
"0","PatientProfile <- read.table('/Xbiome1/tongbangzhuo/Project/NewTech/Donor_selection/GD00909001/4886_metaphlan_bugs_list.tsv', header = FALSE, sep = ""\t"")"
"0","colnames(PatientProfile)[c(1,2)] <- c('ID','4886')"
"0","PatientProfile %<>% filter(str_detect(ID, 's__'), !str_detect(ID, 't__')) %>%  mutate(ID=str_remove(ID, '.*s__')) %>% column_to_rownames('ID') %>% filter_low_abun(., 0.01) %>% filter(.[,] > 0) "
"0","temp_PatientProfile <- PatientProfile"
"0","for (species in colnames(Donordata)){"
"0","  if (species %in% rownames(temp_PatientProfile)){"
"0","    next()"
"0","  }"
"0","  else{"
"0","    temp_PatientProfile[species, ] <- 0"
"0","  }"
"0","}"
"0","combined_profile <- merge(temp_PatientProfile %>% rownames_to_column('Species'), Donordata %>% t() %>% as.data.frame() %>% rownames_to_column('Species'), by = 'Species')"
"0","species_vec <- combined_profile$Species"
"0","combined_profile %<>% apply(., 2, as.numeric)"
"0","rownames(combined_profile) <- species_vec"
"0","combined_profile %<>% .[,-1] %>% filter_low_abun(., 0.0001) %>% as.data.frame() %>% filter(rowSums(.) > 0)"
"0","metadata <- read.table('/Xbiome1/tongbangzhuo/Project/NewTech/Donor_selection/GD00909001/Donor_metadata.xls', sep =""\t"", header = TRUE)"
"0","##Stool"
"0","stool_donor_id <- metadata %>% filter(Sampletype == 'Stool') %>% .$SeqID %>% as.character()"
"0","stool_combined_profile <- combined_profile %>% select(c('4886',stool_donor_id))"
"0","stool_meta <- metadata %>% filter(Sampletype == 'Stool' | Sampletype == 'NF') %>% column_to_rownames('SeqID')"
"0","Stool_phylo <- phyloseq(otu_table(stool_combined_profile, taxa_are_rows = TRUE), sample_data(stool_meta))"
"0","Stool_pcoa <- plot_beta_diversity(phyloseq =Stool_phylo, feature = 'Sample', add_pc1 = TRUE, add_pc2 =  TRUE)"
"0","##Capsule"
"0","capsule_donor_id <- metadata %>% filter(Sampletype == 'Capsule') %>% .$SeqID %>% as.character()"
"0","capsule_combined_profile <- combined_profile %>% select(c('4886',capsule_donor_id))"
"0","capsule_meta <- metadata %>% filter(Sampletype == 'Capsule' | Sampletype == 'NF') %>% column_to_rownames('SeqID')"
"0","Capsule_phylo <- phyloseq(otu_table(capsule_combined_profile, taxa_are_rows = TRUE), sample_data(capsule_meta))"
"0","capsule_pcoa <- plot_beta_diversity(phyloseq =Capsule_phylo, feature = 'Sample', add_pc1 = TRUE, add_pc2 =  TRUE)"
